873477
54989
681795
57272
768136
788482
498481
608772
977968
171718
213504
531968
716170
631018
917565
784952
404714
991085
640434
808771
398261
910300
112055
63811
119504
739808
906157
930400
862781
355485
325272
488077
234760
762875
238643
704562
444128
307393
968236
863315
426649
135584
233164
637663
97603
147952
109091
79856
860563
59821
936717
934978
869588
343976
122264
112512
441364
767237
812888
852459
444461
952907
501256
108249
454804
901975
716051
935309
959621
688192
88971
221964
916521
605615
253808
928501
530062
891949
229499
110527
195031
776972
166582
394385
173878
12576
595249
245243
725104
229427
603274
322544
80117
434959
693343
452895
877945
718429
421871
267054
410387
760937
305178
345513
304579
61838
893933
796312
75623
887679
363060
549035
318846
825753
441853
290568
179412
481633
17814
891019
136418
298486
287797
372346
69298
695697
901286
957545
36234
725349
143236
504881
187462
227269
837627
679486
760776
26889
317972
543751
162179
64842
507285
858288
721567
473244
877561
276847
831472
520785
817596
791419
826327
37273
728048
237845
140362
397978
983881
407648
994169
399107
756914
328328
103119
387957
574967
572308
675255
824796
409139
33724
271918
48212
27031
472691
941308
391683
327297
268206
403316
956312
379660
243749
963402
283185
934580
133723
263947
888501
238069
244234
943416
125626
89658
128302
766845
120432
215334
643460
815573
589774
192286
588793
879800
197673
358597
228817
284471
729749
368566
403203
997156
773680
313108
594211
15994
781951
614757
277777
716451
362847
228037
119582
47538
396667
28558
93991
211318
106327
657944
401653
733930
525011
506751
140596
642031
898261
963833
46064
795464
433857
538131
255886
295130
470078
967675
981062
284457
571416
970605
165338
393510
280514
864320
702879
536724
256118
881393
549782
768384
309019
644701
112982
424391
411457
929213
629257
834542
100200
534236
857326
476435
819443
817373
297706
560286
656955
200332
327781
683375
615332
746666
93677
373469
29961
732902
735889
52512
996286
986983
542170
195034
701166
651794
919101
230118
366615
946540
652802
41466
108942
445051
789651
756994
392254
367639
609435
887552
912561
391889
586231
773793
687148
527848
936429
730865
843646
674318
338612
242516
104183
575537
676678
49378
242245
31305
205375
592
853327
378643
366574
93612
625207
459379
594910
213942
919639
515590
843072
704715
884487
713596
229827
45437
503799
287277
167998
599899
963061
612757
564953
605154
457815
879011
204765
316626
106094
402802
219056
498843
938566
51324
632645
256943
35023
682271
330457
540996
751836
988561
433766
523398
642201
643742
996694
448945
109493
184148
137978
487917
53776
635159
208384
584375
772473
491453
360744
285058
158449
294948
937436
58674
802223
719135
419231
671052
949761
764835
289795
768517
393261
399905
61724
940037
279589
734263
882837
178093
509501
611579
595560
838880
870477
320322
857605
914383
297021
979358
948697
672007
684481
37097
186021
491889
495898
238222
450105
37642
996180
358332
183241
733235
323797
984346
364128
886856
767497
627334
385299
702020
553949
494457
463954
846847
172001
318001
202213
214365
760186
742020
179383
999834
366340
900899
6687
245520
951688
989179
104015
558996
856459
818285
568587
797976
70086
583335
897046
132845
56263
321980
995333
47457
71601
837296
864797
519448
886382
178009
588365
833219
566845
121883
757159
221901
510691
491903
275850
809051
240974
549900
564093
126459
558242
158574
531769
821389
526815
880395
347352
34733
428262
690671
941558
330949
253654
522086
392570
991361
525884
429319
824439
944278
244316
764889
216891
598552
526254
391152
572626
371648
83214
618433
217270
758913
14674
255541
617526
377675
528004
886479
994631
537972
100442
245928
183127
541087
287524
356142
639011
87791
852043
909168
236701
890038
138646
230836
510868
823086
651342
46793
296996
729383
604729
185827
303695
291252
814443
302091
10066
226308
668300
675316
423103
427705
76867
156920
652893
570733
240635
369960
967528
137942
790706
342153
974969
776886
360901
853726
845715
397738
931399
915670
37974
442462
347496
958984
816141
312863
261813
511792
963731
31765
374260
368766
483530
829748
251251
516070
750569
499243
194211
365066
537617
38498
597068
169339
568274
319822
983455
852114
769310
259650
446545
854934
191764
242451
527930
33517
649426
356095
666672
72978
483659
333254
225645
372171
505134
961567
759498
855654
85893
124698
627060
711866
579270
567098
270714
627357
730528
937189
486277
689465
507696
656851
789107
763638
829930
689502
545681
816591
999825
334743
884561
352853
256452
764436
526706
859707
757506
133249
582246
914405
471794
746128
49368
397503
917397
945810
220657
77504
416187
95402
453222
684503
551995
274234
791164
474341
817557
79580
742417
199786
14482
232521
106723
351585
830835
523157
127476
509731
162528
998486
397399
654109
167556
195742
886484
323702
746231
654612
180374
584849
125912
903667
518322
871561
495324
609532
502083
894711
181416
601690
410617
981939
690825
41540
900133
406417
48323
91170
495055
490141
256280
55544
682671
526213
371978
121148
612712
854626
653750
494866
372852
747332
462239
958717
562069
110935
119705
599291
416060
399123
728129
745104
52359
542000
25983
950781
497544
145762
723885
203864
34903
693720
400957
398246
68125
988425
966544
517586
135101
614727
896085
902794
925619
774864
935235
439529
157711
449234
732984
494853
949656
470266
912330
956587
888105
761884
416195
784577
337523
693306
576607
69991
662126
223490
246782
716945
938707
271311
508582
510152
427229
536595
921938
512958
535789
818434
18171
452058
267537
729733
755743
988327
169341
590738
954834
547621
615499
199321
306230
691085
854490
122111
410358
841389
622768
128066
443923
549503
286793
394903
474431
386024
412996
158813
146996
971731
385098
549202
453179
623961
189166
452724
558211
588570
769029
384652
210796
851637
418146
510710
88794
80766
518756
158717
544450
332713
565096
387005
604403
782263
814720
435297
752605
876690
100414
173806
978342
779
304945
987610
806919
949322
751839
885865
547184
247158
297617
9238
787877
631236
224408
123965
253951
814860
126567
137239
494307
991159
860895
146157
514016
401030
287331
41253
386955
690173
965392
225694
88871
710534
191429
582476
276245
883381
762703
424537
502934
234369
636526
796439
414409
735420
216192
161373
788533
643860
340136
203476
902127
116193
176751
203019
594242
492048
134511
200803
569835
293258
585529
958142
941705
163673
670389
540101
743864
687259
703106
202191
166125
265155
727242
144521
557561
6815
587736
612442
825554
895994
477689
769005
717545
329273
295343
742083
614159
492973
303728
257844
885265
943720
523901
312215
564606
188591
12445
403366
84004
22684
674882
950700
74729
875121
548848
659666
791495
438901
554400
756755
543626
415697
553497
215286
628297
293579
186732
320194
652358
693850
362570
178746
802096
972550
462850
74224
574390
442883
298033
880837
718078
796721
596641
110713
650936
46498
345572
547582
415541
