10
74
100
237
371
386
460
588
642
777
898
1113
1173
1260
1436
1523
1596
1672
1834
1850
1905
2092
2325
2500
2710
2716
2730
2747
2791
2881
3480
3621
3996
4023
4066
4165
4219
4315
4343
4509
4606
4607
4643
4802
5082
5104
5163
5174
5609
5725
5842
6281
6584
6643
6676
6945
6954
6987
7031
7067
7081
7734
8289
8325
8369
8584
9125
9222
9422
9799
9978
10045
10065
10259
10341
10594
10774
10913
11008
11063
11224
11472
11966
11996
12034
12073
12222
12350
12357
12459
12478
12480
12507
12950
13065
13075
13114
13172
13697
13710
13718
14178
14208
14307
14325
14387
14477
14495
14725
14922
14982
15095
15451
15467
15580
15617
15810
15935
16032
16233
16527
16638
16754
16961
17120
17190
17261
17324
17327
17425
17435
17755
17990
18060
18336
18478
18630
18768
19027
19152
19488
19755
20091
20169
20200
20260
20427
20634
20652
20756
20886
20964
20966
21113
21160
21373
21583
21614
21802
21840
21933
21961
22084
22119
22257
22269
22333
22429
22672
22675
22932
23032
23131
23132
23333
23389
23389
23455
23581
23608
24007
24216
24304
24498
24530
24632
24673
24860
25074
25193
25201
25226
25285
25371
25617
25635
25943
25986
26133
26158
26178
26270
26332
26454
26456
26524
26563
26652
26703
26762
26914
27115
27203
27245
27534
27783
27843
27913
28111
28182
28253
28441
28508
28547
28608
28625
28626
28712
28814
28869
28901
28977
29059
29103
29107
29251
29276
29420
29425
29442
29480
29490
29531
29578
29686
29691
29698
29912
29965
30230
30457
30776
30933
31201
31401
31423
31474
31874
31892
32167
32226
32412
32495
32556
32636
32791
32900
33183
33290
33358
33450
33494
33535
33923
34007
34325
34413
34589
34683
34733
34828
34855
34911
34957
35414
35448
35691
35691
35730
36028
36129
36280
36306
36319
36329
36349
36353
36488
36578
36637
36642
36743
36764
36973
37110
37471
37666
37766
37947
38250
38289
38365
38491
38497
38504
38603
38721
38742
39475
39487
39502
39571
39600
39756
39898
39926
39934
40026
40095
40185
40250
40267
40299
40516
40561
40664
40713
40746
41073
41123
41218
41532
41610
41742
41947
42070
42208
42455
42509
42722
42783
42873
43314
43389
43421
43477
43646
43796
43956
44053
44064
44075
44309
44344
44377
44542
44629
44749
44816
45113
45334
45387
45475
45644
45928
45973
46249
46505
46513
46610
46643
46803
46818
46892
46943
46947
47272
47277
47386
47685
48058
48234
48403
48475
48509
48642
48704
48743
48946
49069
49140
49403
49466
49555
49864
50023
50025
50042
50096
50282
50388
50643
50932
51113
51660
51883
51919
52411
52773
52908
53031
53062
53291
53550
53585
53626
53638
53829
53829
53841
53866
53971
53973
54378
54458
54633
54654
54734
54991
55104
55108
55132
55153
55333
55343
55350
55813
56114
56224
56243
56311
56363
56490
56776
56819
57292
57332
57417
57636
57674
57714
57753
57879
58126
58218
58311
58345
58427
58618
58719
58864
58866
59133
59229
59306
59369
59379
59619
59778
59826
59936
60135
60162
60191
60364
60402
60483
60543
60595
60705
60915
60917
60986
61037
61262
61401
61684
61963
62072
62179
62367
62399
62473
62483
62483
62638
62995
63044
63119
63430
63482
63635
63666
63819
63847
63874
63909
63987
64116
64340
64352
64534
64710
64848
64987
65074
65173
65318
65359
65432
65550
65553
65553
65577
65839
65910
65972
66120
66203
66474
66486
66536
66676
66751
66858
66902
66931
66991
67055
67428
67451
67516
67651
67769
67874
67898
68032
68037
68110
68111
68114
68188
68328
68341
68507
68519
68758
68979
69212
69693
69795
69813
69922
69967
69976
70023
70088
70113
70572
70619
70698
70956
71017
71095
71153
71153
71168
71584
71611
71684
71761
72039
72226
72415
72443
72518
72818
72959
72995
73206
73244
73273
73428
73536
73693
74025
74059
74211
74482
74672
74839
74881
74897
74964
74992
75043
75048
75260
75414
75467
75498
75644
75862
76003
76044
76075
76155
76320
76406
76456
76683
76800
76886
76922
76984
77189
77232
77307
77342
77380
77478
77547
77984
78030
78309
78388
78452
78904
79033
79124
79164
79215
79217
79362
79373
79378
79388
79419
79683
79980
80070
80250
80261
80447
80521
80601
80621
80834
81051
81057
81156
81285
81355
81376
81800
81854
82046
82133
82255
82433
82582
82743
82767
82911
82991
83107
83111
83137
83534
83546
83684
83869
83946
84506
84544
84577
84877
84931
85115
85147
85389
85540
85709
86028
86053
86069
86239
86261
86324
86342
86385
86516
86596
86653
86773
86822
86905
87053
87134
87321
87444
87687
87792
87884
87993
88036
88436
88438
88481
88526
88583
88612
88839
88941
89024
89069
89073
89091
89095
89197
89221
89409
89448
89456
89713
89885
90259
90332
90466
90693
90815
90940
90956
91204
91555
91608
91729
91757
92019
92026
92242
92575
92593
92629
92768
93108
93127
93140
93178
93256
93341
93558
93837
93848
93850
93945
94168
94394
94396
94460
94479
94541
94937
95089
95223
95356
95476
95561
95646
95709
95719
95938
96054
96246
96468
96578
96654
96717
96734
96828
97305
97502
97747
97883
97970
98293
98430
98533
98580
98988
99562
99584
99693
99701
99746
99805
99988
100101
100138
100162
100332
100414
100477
100512
100727
100739
100994
101020
101072
101341
101400
101773
101836
101991
102076
102177
102327
102343
102471
102530
102533
102667
102721
103250
103313
103492
103599
103825
103951
103986
104231
104297
104374
104406
104475
104518
104563
104996
105086
105172
105460
105493
105614
105728
105747
105772
105923
105958
105959
105991
106011
106126
106529
106681
106796
106852
106867
107049
107067
107088
107439
107591
107678
107715
107720
107736
107850
107880
107957
108072
108193
108207
108310
108390
108504
108524
108799
109075
109527
109577
109869
110211
110466
110534
110698
110740
110881
111043
111246
111353
111556
111582
111743
111746
111833
111881
112139
112270
112290
112332
112387
112462
112493
112548
112552
112787
112995
112997
113275
113316
113370
113385
113395
113538
113762
113805
113875
114082
114173
114190
114532
114657
114867
114877
114891
115120
115554
115601
115694
115717
115914
116021
116074
116165
116282
116469
116518
116611
116942
117004
117062
117234
117281
117347
117542
117578
117626
117918
117958
117967
117993
117995
118135
118149
118867
119035
119068
119232
119345
119352
119401
119602
119683
119742
119784
119802
119829
119919
119957
120082
120106
120663
120733
120859
121097
121250
121675
121818
121907
121992
122076
122184
122533
122540
122596
122656
122681
122789
122866
122981
123017
123045
123215
123396
123422
123546
123590
123727
124045
124088
124398
124562
124590
124815
124850
124914
125079
125138
125139
125267
125313
125472
125514
125611
125685
125912
125924
126454
126511
126577
126627
126740
126745
127173
127276
127319
127373
127499
127529
127549
128133
128141
128306
128342
128459
128594
128660
128678
129088
129095
129186
129674
129736
130039
130105
130116
130173
130361
130444
130593
130707
130790
130920
131090
131253
131820
132090
132097
132323
132441
132997
133039
133230
133439
133526
133715
133742
133861
133897
133902
133947
134004
134051
134174
134222
134325
134385
134542
134609
134816
134869
135153
135294
135427
135585
135588
135799
136382
136391
136411
136527
136611
136882
136952
136984
137429
137683
137778
137795
138345
138470
138705
138805
138984
138985
139134
139228
139299
139659
139777
140049
140167
140235
140297
140383
140387
140536
140680
140820
140988
141362
141366
141433
141531
141570
141665
141832
141877
141925
141959
142144
142185
142274
142305
142789
143150
143179
143934
143963
144376
144378
144469
144744
144758
144801
145073
145230
145463
145488
145648
145659
145727
145807
145811
145870
145876
146018
146088
146097
146398
146431
146692
146752
146974
146987
147063
147129
147200
147249
147552
147780
147839
148061
148065
148196
148264
148298
148426
148455
148508
148668
148674
148754
148812
148954
149037
149057
149066
149292
149442
149464
149767
149807
150336
150339
150669
150699
150855
150865
150876
151043
151229
151327
151334
151476
151641
151764
151808
151895
151952
152104
152228
152407
152423
152557
152615
152627
153126
153136
153144
153154
153224
153688
153709
153772
153783
153842
154089
154225
154285
154442
154587
154603
154704
154734
154789
154803
155035
155283
155410
155608
155680
155838
156010
156243
156349
156529
156559
156639
156694
156742
156768
157096
157198
157281
157436
157560
157839
157931
158130
158171
158247
158562
158618
158668
158766
158825
158900
159044
159264
159317
159386
159395
159431
159621
159734
159775
160017
160152
160232
160499
160596
160626
160996
161154
161196
161474
161552
161554
161593
161640
161682
161746
161772
161914
162063
162310
162540
162589
162768
162817
162859
162972
163037
163097
163199
163418
163440
163499
163656
163861
164104
164188
164222
164257
164258
164588
164714
165173
165246
165270
165324
165394
165547
165550
165556
165566
165716
165747
165869
165941
165944
165972
165974
166053
166456
166533
166656
166676
166706
166726
167380
167643
168213
168410
168484
168493
168498
168507
168716
168869
168921
168990
169035
169045
169431
169471
169485
169658
169661
169989
170061
170454
170747
170878
171032
171061
171122
171147
171173
171251
171344
171577
171633
171703
171887
171904
171954
172233
172310
172335
172596
172723
172968
172997
173188
173197
173232
173263
173299
173520
173650
173759
173963
174051
174146
174309
174462
174647
174774
175441
175522
175726
175728
176235
176369
176634
176789
177066
177371
177524
177554
177624
177653
177703
178002
178174
178492
178613
178710
178759
178886
179388
179420
179507
179577
179668
179695
179713
179880
180076
180129
180133
180363
180396
180397
180496
180503
180556
180902
181039
181186
181660
181748
181750
181820
181935
181962
182124
182852
183093
183293
183364
183416
183424
183694
183882
184230
184376
184527
184556
184562
184568
184716
185105
185242
185358
185390
185504
185530
185592
185682
185768
185830
185902
186117
186139
186285
186419
186490
186491
186608
186658
186801
186819
187085
187129
187217
187388
187402
187428
187839
188059
188224
188442
188642
188931
189068
189121
189176
189189
189352
189366
189446
189824
189978
190239
190390
190442
190446
190459
190785
190862
190865
190922
191185
191263
191329
191483
191657
191808
191857
192136
192361
192645
192752
192907
192950
193058
193128
193268
193444
193488
193605
193856
193932
194089
194441
194468
194500
194509
194902
195009
195025
195079
195186
195228
195318
195364
195468
195609
195706
195808
195915
196369
196500
197005
197109
197416
197449
197637
197672
197783
197932
197971
198018
198023
198302
198435
198520
198523
198747
198812
198855
199168
199250
199386
199395
199600
200299
200391
200422
200599
200657
200921
200975
201031
201031
201205
201375
201400
201679
201738
201743
201882
201948
202005
202174
202251
202309
202339
202393
202598
202686
202825
202827
202862
203086
203244
203357
203599
203826
204131
204218
204226
204247
204546
204608
204686
204701
205464
205490
205571
205752
205841
205979
206133
206174
206306
206319
206522
206596
206676
206678
206758
206899
206957
207267
207298
207305
207331
207670
207696
207702
207915
207973
208087
208113
208300
208319
208682
208696
208735
208813
209028
209030
209066
209078
209102
209137
209192
209209
209229
209268
209287
209326
209798
209999
210326
210482
210704
210728
210935
211345
211346
211495
211651
211657
211692
211747
211852
211938
211981
212192
212294
212301
212326
212389
212554
212676
212700
212935
213037
213080
213193
213308
213583
213716
213872
213987
214234
214317
214517
214614
214657
214707
214775
215054
215083
215093
215277
215385
215835
215845
215861
215866
215988
216304
216336
216415
216429
216589
216765
216837
216840
217300
217560
217635
217686
217947
218177
218364
218508
218775
218863
218923
218977
219017
219158
219391
219620
219631
219633
219966
219978
220088
220514
220699
220742
220841
220864
220892
221003
221075
221156
221259
221334
221384
221607
222147
222363
222506
222720
222854
223048
223180
223451
223616
223982
223991
224173
224295
224555
224562
224569
224638
224679
225051
225345
225370
225475
225577
225882
225883
225931
226028
226102
226160
226288
226315
226639
226751
226883
226897
226906
227773
227815
228111
228276
228301
228410
228514
228547
228751
228856
228875
228911
229097
229128
229219
229406
229456
229476
229495
229706
229781
229824
230001
230010
230119
230157
230390
230398
230934
231103
231141
231220
231263
231275
231531
231681
231682
231897
232129
232317
232340
232370
232532
232616
232690
232878
232893
232932
233063
233081
233169
233258
233335
233516
233624
233766
233783
233953
234004
234159
234192
234257
234419
234539
234547
234626
234772
234880
234888
234916
235078
235098
235796
235818
235884
236132
236209
236238
236313
236314
236377
236492
237002
237042
237189
237218
237425
237498
237550
237677
237883
238276
238450
238757
238965
239072
239305
239377
239418
239442
239513
239543
239859
239988
240024
240082
240164
240217
240307
240464
240482
240555
240579
240598
240923
241111
241177
241245
241281
241287
241309
241315
241615
241638
241735
241819
241963
242257
242281
242324
242488
242636
242714
242771
242886
242974
243070
243071
243708
243802
243808
243818
243825
243851
243913
244002
244186
244199
244327
244366
244398
244511
244586
244612
244686
244765
244802
244892
245021
245200
245331
245360
245517
245857
246004
246004
246132
246160
246161
246194
246305
246730
247215
247236
247265
247587
247662
247664
247768
247860
247912
248158
248223
248280
248334
248335
248341
248389
248406
248412
248474
248539
248634
248681
248805
249020
249144
249187
249218
249257
249431
249493
249670
249826
250304
250306
250522
250630
250637
250696
250800
250836
250941
250990
251146
251199
251261
251538
251569
251976
251987
252020
252139
252358
252626
252776
252796
252908
253376
253629
253739
253783
254053
254294
254327
254468
254683
254775
254985
255099
255127
255205
255240
255261
255311
255386
255584
255657
255674
255690
255859
255902
255902
256166
256192
256275
256301
256410
256489
256673
256695
256817
256884
256983
257064
257435
257684
257810
258034
258172
258295
258302
258331
258459
258474
258533
258730
258808
258909
258939
259385
259404
259409
259696
259746
259759
259759
259925
260189
260227
260238
260280
260331
260396
260479
260535
260871
260938
260985
261092
261201
261279
261282
261290
261504
261545
261692
261736
261796
261908
262015
262134
262136
262236
262358
262635
262653
262849
263070
263118
263176
263199
263226
263583
263602
263655
263662
263730
263750
263987
263990
264005
264021
264211
264414
264446
265035
265046
265090
265114
265201
265266
265368
265654
265682
265807
265835
265982
265999
266006
266111
266269
266299
266505
266509
266586
266597
266685
266811
267304
267521
267779
267804
268049
268115
268237
268445
268536
268913
268955
269005
269161
269216
269288
269487
269509
269623
269632
269750
270037
270041
270157
270244
270337
270422
270612
270794
270815
271043
271204
271231
271257
271377
271581
271793
272366
272370
272423
272604
272922
273134
273166
273257
273494
273508
273541
274020
274027
274070
274176
274265
274273
274302
274351
274446
274507
274617
274686
274784
274881
274906
274913
274919
274927
274933
274984
275265
275325
275408
275433
275454
275582
275633
275656
275707
275712
275879
276211
276317
276341
276525
276563
276579
276764
276809
276888
277125
277139
277288
277422
277428
277435
277494
277650
278015
278329
278452
278587
278597
278601
278645
278693
278711
278719
278765
278837
278850
279086
279340
279349
279369
279642
280136
280329
280375
280423
281097
281157
281235
281335
281528
281614
281708
281893
282082
282228
282294
282422
282498
282578
283130
283513
283620
283651
283680
283700
283754
283821
284253
284374
284505
284594
284675
284728
284789
284825
284896
284979
284979
285024
285026
285417
285460
285522
286019
286054
286090
286146
286198
286326
286361
286553
286614
286718
286725
286795
286957
286967
287103
287285
287416
287509
287631
287673
287760
288008
288348
288441
288677
288729
288834
288989
288997
289041
289209
289260
289366
289401
289514
289560
289580
289753
289802
289867
289948
290062
290140
290184
290544
290682
290683
290798
290928
290985
291003
291010
291187
291241
291530
291543
291655
291898
292256
292375
292458
292489
292504
292778
292988
293110
293249
293253
293659
293799
294038
294063
294107
294193
294203
294554
294910
295034
295385
295624
295631
295751
295779
295805
295850
295975
296176
296252
296497
296605
296650
296659
296745
296860
296938
296950
297069
297156
297194
297279
297292
297322
297485
297545
297624
298409
298502
298583
298616
298675
298746
298808
298833
298979
299012
299213
299287
299678
299691
299782
299809
300045
300277
300299
301079
301465
301469
301675
301955
302217
302440
302453
302486
302551
302579
302865
302883
303075
303189
303283
303397
303405
303436
303540
303717
304245
304253
304302
304316
304422
304528
304787
305038
305111
305157
305290
305306
305650
305892
306091
306577
306588
306627
306690
306978
307068
307076
307113
307147
307158
307193
307329
307413
307418
307475
307497
307684
307703
307808
307995
308035
308178
308537
308635
308646
308730
309096
309250
309426
309431
309614
309830
309892
309904
309932
309936
310092
310269
310342
310525
310653
310655
310676
310738
310913
310954
311065
311241
311598
311645
311721
311740
311791
311832
311842
311881
312552
312578
312651
312831
312955
313035
313268
313409
313650
313908
313988
314025
314155
314215
314225
314232
314448
314452
314467
314523
314634
315081
315198
315227
315646
315696
315873
315932
316079
316165
316231
316505
316734
316749
316761
316960
317053
317143
317217
317296
317419
317488
317615
317625
317771
318114
318165
318223
318223
318263
318278
318499
318522
318582
318589
318618
318633
318695
318745
318822
319244
319385
319594
319823
319996
320035
320100
320116
320147
320274
320382
320461
320496
320586
320905
321107
321172
321305
321322
321373
321451
321490
321603
321926
321972
322275
322289
322629
322703
323041
323217
323218
323261
323292
323351
323352
323612
323631
323946
324057
324132
324175
324371
324389
324807
325037
325329
325387
325414
325915
325957
325990
326089
326221
326248
326392
326506
326748
326849
327625
327715
327901
327931
328284
328300
328361
328376
328594
328837
329068
329147
329238
329271
329297
329486
329500
329604
329638
329700
329751
329882
330099
330342
330518
330583
330635
330702
330742
330975
331030
331070
331282
331520
331965
332026
332060
332095
332298
332299
332333
332361
332448
332694
332789
332837
332864
332879
332948
333066
333246
333332
333490
333691
333881
334010
334342
334499
334501
334646
334695
335247
335314
335610
335618
335710
335780
335913
336359
336602
336648
336656
336705
336872
336885
336907
336958
337104
337523
337682
337703
337930
338353
338460
338496
338535
338541
338825
338848
338995
339453
339481
339575
339636
339733
339900
339984
340167
340595
340696
340985
341407
341763
342026
342039
342328
342333
342441
342570
342624
342632
342747
342782
343146
343148
343303
343304
343334
344060
344112
344113
344378
344432
344457
344494
344784
344798
344891
345035
345142
345283
345553
345576
345692
345872
345986
346209
346302
346351
346507
346857
346998
347039
347169
347208
347238
347254
347378
347404
347499
347631
347805
347881
347964
348219
348280
348309
348372
348522
348638
348833
349035
349174
349179
349235
349310
349509
349540
349545
349587
349610
349783
349938
350090
350119
350334
350557
350569
350708
350919
350947
351015
351353
351391
351454
351540
351577
351730
351824
351959
352106
352116
352126
352172
352258
352272
352430
352614
352790
352906
352930
353049
353060
353561
353691
353717
353786
353810
353899
353914
353946
353947
354244
354408
354586
354754
354760
355043
355310
355345
355387
355779
355803
355971
356001
356039
356047
356054
356077
356095
356179
356360
356423
356746
356959
357170
357215
357394
357399
357925
358005
358154
358458
358483
358968
359224
359328
359535
359867
359942
359954
360084
360122
360293
360564
360570
360660
360665
360818
361189
361245
361280
361346
361602
361638
361693
361717
361790
361818
361930
362134
362165
362180
362524
362538
362711
362801
363114
363163
363535
363777
363802
363907
364279
364550
364775
364937
364977
364996
365064
365190
365255
365262
365296
365386
365609
365935
366094
366247
366305
366339
366369
366383
366619
366789
366793
366960
367395
368064
368446
368601
368612
368897
369093
369152
369153
369183
369238
369492
369531
369578
369626
369638
369960
370171
370244
370394
370575
370610
370680
370743
370918
371095
371225
371289
371381
371469
371517
371676
371852
371921
372236
372249
372487
372675
372701
372755
372756
372821
372857
373112
373205
373232
373251
373342
373376
373635
373762
374199
374470
374673
374976
375079
375539
375569
375597
375711
375744
375801
376029
376136
376168
376261
376450
376470
376539
376594
376691
376749
376772
376970
377148
377184
377241
378014
378159
378309
378325
378386
378513
378597
378759
378913
378964
379013
379559
379656
379713
379744
380189
380288
380494
380538
380837
380845
380982
381147
381241
381244
381292
381328
381351
381387
381413
381583
381723
381839
381879
382022
382122
382381
382493
382650
382727
382808
383082
383160
383334
383510
383595
383674
383682
383762
383833
383963
383987
384066
384231
384236
384243
384248
384552
384581
384976
384996
385076
385452
385459
385546
385672
385727
385773
385787
385839
385865
386059
386198
386391
386418
386692
386733
386792
386830
386864
386933
386967
387015
387060
387085
387113
387197
387330
387335
387381
387443
387985
388122
388396
388576
388588
388637
388987
389133
389179
389190
389271
389426
389494
389495
389597
389673
389696
389764
389868
390130
390192
390205
390249
390269
390283
390297
390332
390412
390450
390496
390560
390924
391175
391363
391364
391485
391756
391878
392068
392098
392137
392319
392399
392593
392639
392809
392856
392916
393268
393308
393437
393731
393841
393928
393943
394017
394098
394159
394308
394558
394688
394698
394699
394721
394870
394975
395072
395117
395274
395460
395470
395564
395647
395798
395846
396021
396174
396215
396253
396500
396564
396740
396763
397112
397238
397335
397479
397595
397635
397653
398086
398118
398297
398329
398417
398537
398540
398584
398684
398803
398843
398859
398940
398968
399297
399436
399472
399575
399690
399777
399815
400492
400576
400587
400608
400648
400727
400752
401061
401229
401884
402041
402238
402242
402329
402360
402408
402715
402809
402931
402955
403294
403443
403458
403528
403856
404186
404373
404645
404842
404955
404980
405081
405575
405584
405616
405638
405845
405905
406013
406469
406778
407022
407057
407165
407195
407591
407619
407851
407866
407991
408046
408049
408101
408342
408343
408401
408412
408812
408961
408993
409000
409061
409084
409177
409267
409400
409474
409599
409775
409808
409822
409835
409852
409885
410033
410394
410456
410530
410647
410751
410809
410943
410945
411334
411353
411483
411545
411851
411867
411924
411947
412366
412411
412482
412864
412873
413061
413217
413330
413332
413401
413612
413619
413777
413855
414121
414639
414699
414759
414945
415151
415262
415574
415595
415892
415911
415948
415962
416077
416185
416499
416598
416768
416777
416849
416866
417118
417211
417399
417447
417617
417752
417812
417858
418009
418083
418188
418368
418822
418896
418896
418926
419079
419170
419215
419576
419681
419734
419823
419858
419899
419911
419916
419950
420243
420367
420539
420619
420744
420772
420863
420913
421068
421143
421409
421662
421696
421786
421816
421966
422036
422275
422407
422430
422553
422779
422810
422893
422900
422953
423092
423153
423341
423536
423649
423886
423921
424125
424196
424199
424504
424528
424578
424666
424690
424768
425234
425313
425422
425610
425656
425723
426086
426111
426208
426409
426438
426457
426735
426862
427109
427167
427181
427188
427208
427345
427386
427412
427420
427516
427610
427777
427815
427816
427861
427868
428084
428146
428152
428234
428246
428416
428467
428972
429013
429062
429104
429349
429410
429612
429633
429650
429880
429943
430198
430722
430894
431004
431101
431152
431206
431235
431429
431661
431729
431832
432088
432134
432242
432590
432747
432775
432809
432869
432878
432893
433113
433427
433445
433572
434042
434042
434306
434526
434559
434633
434902
435026
435384
435420
435635
435802
435944
435998
436019
436130
436354
436502
436675
436831
436875
437003
437030
437235
437395
437524
437527
437573
437574
437644
437651
438008
438074
438151
438226
438237
438506
439085
439145
439230
439417
439578
439668
439698
439772
439835
440323
440944
441141
441186
441207
441228
441410
441413
441546
441689
441702
441963
442061
442083
442109
442144
442207
442394
442625
443201
443373
443583
443681
443719
443888
443974
444192
444224
444336
444404
444510
444838
444865
444971
444985
445156
445170
445368
445633
445747
445795
445804
445844
445851
445995
446161
446189
446881
447023
447223
447263
447324
447471
447490
447544
447710
447873
447900
447924
448033
448043
448089
448176
448178
448447
448469
448552
448593
448719
448752
448823
448961
449431
449470
449568
449973
450086
450088
450107
450153
450414
450805
450922
450988
451047
451359
451413
451655
451714
451949
452048
452204
452299
452332
452442
452694
452770
452876
452883
453027
453035
453399
453670
453673
453703
453714
453915
453938
454175
454334
454353
454549
454743
454784
454882
454986
455196
455224
455277
455307
455395
455429
455465
455534
455601
455647
455848
455937
455940
455947
456048
456501
456553
456583
456608
456634
456691
456803
456961
457008
457067
457072
457150
457408
457639
457742
458054
458078
458282
458492
458622
458754
458816
458957
459027
459123
459124
459160
459205
459306
459398
459425
459433
459509
459858
460104
460197
460206
460275
460297
460315
460347
460348
460478
460526
460561
460561
460571
460585
460596
460731
461128
461216
461394
461735
462150
462204
462267
462274
462630
462727
462838
463003
463118
463270
463302
463310
463366
463366
463464
463470
463625
463636
463636
463688
463765
464074
464236
464351
464352
464464
464728
464843
464997
465025
465035
465124
465173
465306
465370
465486
465543
465855
465884
465939
466065
466105
466335
466475
466533
466563
466730
466811
466923
466939
466948
466957
467051
467083
467159
467508
467705
467717
467891
467893
468054
468089
468120
468186
468264
468273
468311
468359
468925
469109
469114
469130
469257
469361
469385
469441
469733
469886
469996
470062
470221
470366
470414
470461
470665
470699
470705
470740
470864
470875
471204
471293
471311
471390
471783
471902
471943
472011
472081
472220
472486
472506
472583
472695
472951
473046
473207
473259
473292
473320
473398
473430
473478
473739
473913
474044
474617
474678
474792
474902
475041
475068
475159
475238
475283
475382
475569
475622
475691
475691
475711
475822
475838
475976
476081
476311
476358
476577
476642
476661
476873
477096
477133
477185
477188
477208
477211
477226
477311
477453
477468
477501
477912
477918
478029
478071
478085
478313
478315
478332
478341
478655
478805
479153
479282
479456
479504
479537
479663
479766
480008
480078
480090
480094
480104
480221
480224
480346
480605
480650
480716
481129
481147
481160
481184
481357
481385
481469
481510
481531
481547
481691
481999
482006
482122
482148
482178
482305
482328
482641
482896
482979
483070
483183
483245
483300
483306
483419
483585
483697
483974
484237
484706
485062
485093
485269
485291
485311
485664
485738
485757
485777
485985
486189
486207
486359
486423
486441
486513
486667
486673
486752
486803
486806
486906
487180
487517
487578
487862
487911
489110
489383
489392
489453
489494
489666
489699
489730
489800
490464
490802
490807
490845
491044
491118
491289
491301
491603
491951
491956
492270
492310
492382
492872
493267
493319
493447
493455
493510
493797
493888
494164
494353
494716
494876
494885
495069
495091
495228
495315
495825
495842
495886
496493
496503
496661
497083
497467
497485
497493
497616
497713
497922
498060
498165
498280
498420
498430
498554
498658
498739
498794
498806
498992
499130
499409
499460
499488
499589
499727
499827
500087
500137
500248
500287
500397
500846
501166
501169
501720
501865
502158
502180
502274
502413
502492
502518
502683
502838
502933
502951
503033
503099
503127
503263
503392
503403
503671
503783
503851
504044
504063
504285
504325
504528
504933
505097
505281
505398
505784
505979
505999
506069
506263
506366
506579
506634
507003
507232
507323
507599
507609
507796
507895
507920
507942
508306
508342
508404
508484
508533
508624
508955
509063
509109
509406
509522
509820
510100
510143
510177
510707
510715
511134
511462
511670
511728
511773
511790
511948
512097
512156
512311
512517
513016
513019
513213
513824
513942
513955
513978
514254
514317
514327
514354
514472
514543
515227
515459
515656
515765
515767
515806
515934
515971
516033
516262
516345
516520
516627
516990
517239
517242
517334
517567
517734
518068
518300
518325
518338
518408
518457
518921
519139
519196
519403
519574
519613
519737
519803
519839
519934
520138
520336
520422
520612
520648
520667
520889
520967
521072
521088
521389
521616
521719
521769
521824
521922
521937
522101
522170
522323
522474
522960
522991
523110
523423
523592
523809
523991
524024
524310
524435
524444
524534
524620
524703
524784
525257
525567
525733
525742
525825
525894
526165
526340
526409
526410
526635
526667
526785
526998
527014
527054
527300
527322
527363
527652
527777
527805
527898
528605
528626
528700
528735
528891
528895
529041
529593
529775
529810
529880
530001
530377
530397
530507
530595
530765
530993
531591
531604
531675
531801
532178
532394
532435
532523
532852
532940
533345
534015
534023
534039
534481
534553
534608
534613
534809
535065
535170
535700
535715
535716
535797
535885
535903
535988
536006
536027
536168
536325
536344
536546
536894
536953
536989
537239
537280
537294
537419
537427
537503
537617
537798
537835
537927
538113
538525
538530
538533
538682
538703
539096
539418
539420
539687
539794
539802
540363
540851
540900
540955
541017
541059
541237
541239
541366
541491
541602
541700
542064
542190
542202
542417
542462
542470
542482
542808
542891
543380
543424
543559
543719
543763
543847
543877
543884
543958
544157
544427
544546
544581
544617
544774
545248
545286
545317
545332
545424
545468
545636
545771
545780
545780
545831
545911
545917
546309
546389
546507
546549
546627
546630
546937
547123
547324
547851
547898
548461
548488
548501
548556
548882
548958
549004
549013
549444
549481
549494
549801
549937
550066
550433
550529
550530
550536
550642
550713
550855
550856
550938
550940
550943
550966
551027
551222
551275
551330
551624
551846
551861
551868
552161
552385
552444
552528
552586
552587
552756
552926
553392
553429
553670
553778
553845
554026
554053
554129
554171
554458
554562
554565
554664
554827
554855
555001
555024
555114
555126
555141
555210
555303
555393
555897
555991
556003
556042
556055
556096
556258
556259
556498
556616
556844
556847
556994
557005
557227
557294
557315
557403
557761
557816
557954
558065
558131
558352
558376
558476
558712
558760
559113
559182
559356
559553
559680
559724
559769
559830
559863
559904
559935
560052
560352
560443
560631
560950
561087
561087
561423
561805
562019
562106
562367
562380
562668
562823
562914
563081
563355
563549
563659
564437
564714
564736
564784
564826
564959
565041
565067
565388
565490
565713
565957
566033
566507
566557
566620
566664
566739
566793
566813
566824
566958
566993
567062
567064
567635
567727
567805
567836
567875
567921
567927
567989
568025
568206
568251
568391
568938
568996
569029
569366
569521
569550
570222
570377
570386
570476
570514
570552
570625
570884
570895
570906
570976
571097
571126
571265
571489
571599
571864
571877
571933
571994
572258
572266
572489
572741
572765
572981
573143
573504
573609
573667
573886
574285
574305
574779
574895
574989
575196
575275
575380
575399
575423
575466
575515
575559
575656
575821
575941
576088
576251
576395
576406
576488
576749
576852
577201
577850
578241
578263
578543
578582
578597
578605
578617
578915
578981
579057
579095
579161
579260
579292
579349
579571
579602
579876
579922
580106
580127
580169
580177
580248
580252
580509
580731
580745
580836
580862
580891
581019
581210
581215
581275
581369
581372
581377
581420
581462
581560
581603
581608
581772
581791
581894
582092
582286
582332
582336
582413
582475
582832
583006
583020
583071
583320
583400
583402
583615
583684
583818
583857
584027
584198
584213
584221
584231
584352
584361
584453
584671
584805
584868
584893
585086
585232
585257
585289
585353
585475
585515
585522
585780
585842
585846
586025
586067
586125
586360
586571
586683
586853
586886
586887
586928
587073
587080
587102
587283
587320
587408
587435
587456
587628
587774
587851
587909
588116
588162
588319
588715
588932
588976
589122
589138
589173
589863
589908
589941
589942
589995
590051
590127
590129
590184
590212
590276
590280
590344
590401
590644
590868
591160
591331
591371
591393
591403
591585
591695
591723
591851
591940
591977
592074
592124
592160
592170
592236
592432
592453
592535
592579
592662
592675
592709
592762
592843
593020
593026
593120
593122
593155
593240
593296
593307
593506
594339
594367
594375
594529
594638
594700
594760
594925
595018
595025
595099
595186
595244
595533
595679
595789
595823
595979
596042
596058
596341
596573
596574
596585
596782
597166
597317
597457
597470
597903
597939
598365
598516
598808
599053
599072
599228
599256
599348
599398
599478
599508
599741
599942
599988
600309
600313
600500
600674
600855
600885
600996
601042
601293
601343
601574
601581
601945
602014
602064
602163
602175
602245
602269
602333
602748
602880
602914
603009
603036
603396
603430
603532
603758
604027
604069
604475
604504
604729
605041
605137
605247
605266
605286
605364
605470
605552
605661
605666
605754
605755
605841
605965
606127
606257
606366
606517
606542
606602
606711
606748
606818
607065
607069
607376
607403
607417
607562
607851
608199
608598
608625
608655
608670
608734
609125
609642
609659
609769
609797
609811
609815
609948
610016
610155
610233
610268
610337
610436
610478
610909
611441
611452
611469
611752
611772
611845
611918
611960
612033
612063
612098
612200
612252
612293
612314
612339
612363
612383
612614
612812
612872
612909
613264
613553
613942
614137
614152
614191
614353
614423
614626
614698
614781
614805
615055
615155
615374
615438
615446
616067
616080
616159
616181
616371
616448
616610
616663
617168
617477
617632
617910
617973
618101
618131
618142
618299
618375
618406
618469
618477
618543
618562
618631
618801
618809
618925
618976
619013
619060
619135
619609
619645
619803
619819
619896
620096
620106
620577
620702
620789
620925
620961
620963
621074
621228
621400
621508
621721
621798
622080
622403
622460
622705
622769
622855
622858
622860
622987
623016
623262
623469
623527
623636
623717
624065
624131
624199
624443
624688
624696
624854
624958
625012
625086
625194
625287
625443
626082
626205
626565
626636
626765
627028
627181
627317
627610
627659
627856
627887
628199
628372
628382
628496
628593
628638
628797
628972
629089
629172
629232
629640
629719
629837
630031
630060
630157
630190
630206
630228
630387
630480
630503
630570
630573
630719
630938
631020
631055
631238
631277
631332
631374
631563
631854
631969
632169
632175
632271
632453
632507
632581
632582
632700
632842
632954
632988
633077
633224
633425
633677
633706
633917
633992
634006
634059
634412
634560
634884
635216
635270
635326
635448
635825
636100
636183
636353
636521
636760
636773
636930
637199
637384
637423
637522
637700
637712
637953
638043
638064
638135
638279
638415
638426
638519
638553
638599
638689
638795
638924
638933
639024
639150
639372
639667
640245
640359
640400
640511
640518
640545
640572
640642
640783
640842
640980
641062
641102
641205
641241
641303
641321
641620
641752
641822
641855
641860
641883
642027
642386
642474
642481
642791
642935
643302
643489
643829
643949
644021
644332
644342
644447
644496
644501
644516
644565
644662
644778
644793
645117
645290
645456
645470
645574
645683
645721
646462
646597
646814
646938
647002
647045
647474
647534
647632
647689
648032
648087
648095
648109
648152
648156
648218
648310
648385
648769
648845
649245
649270
649300
649488
649543
649638
649655
650202
650441
650814
650948
651210
651231
651290
651296
651312
651331
651333
651718
651734
651889
651965
652026
652189
652292
652294
652310
652572
652789
652930
653027
653199
653346
653426
654053
654123
654135
654405
654515
654893
654898
655025
655160
655285
655619
655685
655731
655764
656415
656438
656677
656722
656741
656876
656917
657057
657131
657136
657380
657784
657889
657895
658107
658196
658226
658351
658459
658479
658496
658670
658697
658705
658887
659174
659471
659621
659673
659733
659782
659871
660148
660356
660382
660455
660476
660533
660633
660844
660853
660864
660989
660994
661031
661054
661057
661108
661211
661430
661468
661537
661554
661618
661837
661846
661852
661880
662107
662515
662562
662940
663310
663341
663417
663619
663625
663642
663717
663748
663821
663899
663923
663956
663992
664023
664062
664158
664185
664338
664421
664569
664638
665064
665173
665226
665615
665879
665915
666785
666803
667005
667063
667084
667157
667255
667283
667392
667418
667466
667796
667858
667881
668073
668349
668382
668540
668588
668780
668814
668982
669026
669130
669131
669228
669428
669524
669524
669573
669583
669798
670023
670056
670085
670146
670170
670286
670432
670492
670568
670656
670799
671104
671397
671438
671455
671543
671572
671731
671790
671839
671958
672083
672097
672257
672284
672300
672358
672575
672725
672787
672898
673085
673202
673261
673300
673357
673588
673746
673804
673843
674014
674177
674285
674303
674321
674543
674574
674626
674697
674755
674980
675498
675686
675807
675864
676027
676064
676074
676207
676257
676309
676340
676735
676796
676802
676808
676957
676987
677065
677228
677267
677649
677702
677734
677782
677815
677819
677843
677896
678037
678085
678135
678242
678283
678315
678493
679001
679091
679235
679368
679595
679604
679607
679745
679761
679893
679918
680081
680488
680552
680592
680632
680724
680751
681100
681334
681673
681675
681781
681896
682222
682293
682419
682443
682669
682689
682915
682972
683145
683179
683200
683253
683325
683340
683428
683559
683613
683667
683804
683813
683863
684302
684332
684789
684922
685098
685249
685633
685821
685926
685953
686026
686071
686121
686161
686204
686374
686445
686463
686532
686664
686689
686710
686876
686904
687078
687147
687162
687294
687299
687366
687521
687886
687963
687980
688256
688267
688471
688710
688747
688783
688859
688955
689288
689355
689417
689494
689495
689597
689598
689643
689732
689781
689843
689877
689900
689993
690138
690140
690359
690637
690721
690922
691031
691252
691382
691412
691457
691559
691678
691837
691940
692047
692111
692196
692352
692445
692493
692605
692738
692783
693069
693129
693300
693459
693622
693641
693813
693875
694036
694073
694076
694093
694350
694365
694511
694557
694562
694634
694673
694682
694790
694819
695014
695248
695383
695396
695453
695526
695631
695654
695754
695854
695918
696018
696034
696121
696195
696264
696532
696817
696828
696860
696910
697238
697394
697574
697926
698132
698226
698325
698384
698409
698424
698737
698766
698830
699302
699303
699501
699659
700112
700221
700233
700291
700474
700561
700565
700734
700938
700973
701005
701184
701332
701358
701758
701843
701944
701951
701956
702049
702098
702106
702249
702354
702362
702371
702377
702454
702999
703014
703080
703181
703288
703347
703409
703441
703581
703726
703816
703856
703873
703994
704148
704297
704671
704849
704871
704910
704916
704918
705169
705239
705285
705357
705532
705630
705793
706020
706063
706222
706327
706442
706455
706676
706701
707265
707471
707471
707509
707968
708038
708098
708254
708674
708701
708722
708766
708802
708888
709052
709167
709434
709447
709481
709493
709591
709857
710093
710190
710209
710214
710487
710544
710547
710762
710926
710955
711244
711349
711355
711390
711438
711554
711722
711865
711954
711971
712075
712657
712809
712890
712998
713067
713151
713595
713721
713778
714199
714325
714820
714972
714995
715099
715689
715710
715711
715818
715863
715929
715930
716013
716194
716249
716343
716513
716535
716901
717229
717272
717857
718023
718166
718229
718258
718501
718592
718606
718916
719068
719093
719401
719411
719728
719754
719873
719900
720272
720372
720638
720813
720834
720945
721016
721054
721183
721250
721267
721309
721312
721452
721583
721686
721810
722359
722387
722414
722474
722545
722827
722972
723051
723198
723320
723406
723552
723578
723686
723753
723832
723837
723837
723914
724315
724430
724474
724679
724690
724807
724880
724933
725287
725408
725410
725474
725516
725556
725921
725993
726486
726650
726814
726913
727021
727102
727129
727261
727558
727560
727650
727691
727840
727888
727949
728050
728072
728370
728580
728600
728619
728694
729216
729308
729436
729526
729555
729722
729814
729816
730189
730223
730230
730335
730461
730882
730933
730940
731304
731365
731412
731414
731552
731652
731672
731822
732109
732120
732335
732344
732493
732521
732696
732743
732775
733154
733291
733322
733540
733555
733586
733784
733843
734139
734201
734205
734240
734298
734421
734460
734564
734603
734712
734819
734828
735034
735208
735345
735400
735403
735406
735653
735691
735730
736175
736383
736478
736530
736666
736716
736825
736921
737011
737038
737320
737332
737458
737906
737931
738186
738573
738613
738836
738907
738910
739239
739804
739844
740035
740111
740151
740167
740244
740635
740650
740792
740800
740904
740911
740942
740992
741203
741377
741428
741465
741602
741649
741690
741791
741929
741948
742006
742265
742367
742392
742587
742598
742639
742705
742707
742727
742934
742967
743078
743489
743549
743637
743871
743966
744292
744435
744436
744464
744470
744684
744952
745036
745134
745447
745467
745531
745769
745848
746279
746596
746714
746715
746731
746874
746880
747045
747207
747591
747604
747736
747754
747851
747950
748004
748062
748152
748188
748215
748528
748804
748931
748935
748952
749184
749283
749399
749628
749650
749815
749849
750083
750115
750176
750184
750355
750761
751130
751497
751497
751562
751960
752115
752334
752631
752745
752898
752961
753146
753150
753575
753620
753834
753873
754051
754158
754289
754512
754830
754881
755113
755279
755463
755465
755537
755722
755849
755989
756130
756143
756148
756371
756407
756724
756830
756857
757100
757101
757271
757345
757450
757525
757709
757872
757873
757930
758206
758213
758214
758877
759118
759133
759224
759321
759538
759594
759856
759986
760045
760055
760111
760125
760237
760338
760464
760467
760495
760568
760645
760647
760870
760926
761117
761354
761539
761595
762090
762102
762223
762422
762587
762631
762728
762743
763012
763076
763112
763232
763355
763428
764072
764114
764142
764194
764265
764269
764433
764580
764826
764918
764970
764987
764995
765235
765300
765356
765431
765454
765471
765821
765939
766034
766273
766294
766328
766335
766356
766396
766586
766652
766688
766737
766753
766969
767219
767358
767490
767563
767649
767795
767917
768046
768228
768259
768262
768433
768579
768609
768719
768885
769017
769082
769103
769207
769254
769543
769833
770002
770010
770035
770186
770268
770338
770497
770636
771342
771362
771573
771677
771713
771895
771903
772042
772123
772280
772397
772680
772777
772913
773232
773455
773483
773634
773665
773907
774094
774100
774364
774497
774513
774639
774698
774745
774776
774838
775016
775094
775410
775476
775495
775686
775742
776047
776142
776182
776341
776688
776717
776804
776946
777033
777068
777460
777529
777734
777762
777878
777959
778029
778136
778403
778458
778471
778578
778889
778967
779067
779125
779208
779214
779582
779615
780353
780412
780549
780801
781046
781198
781339
781592
781903
782202
782668
782790
782921
782944
782972
783010
783070
783576
783621
783631
783915
783944
784326
784382
784883
784905
784925
785118
785125
785181
785186
785191
785285
785362
785424
785463
785492
785602
785649
785673
785909
785938
786047
786111
786132
786141
786206
786462
786555
786681
786924
786972
787020
787021
787025
787278
787281
787557
787599
787731
787754
787931
788130
788206
788547
788573
788664
788703
788724
788942
788993
789037
789047
789092
789356
789450
789464
789646
789655
790150
790176
790286
790337
790347
790475
790574
790842
790872
790884
791227
791470
791773
791793
792055
792106
792157
792258
792265
792322
792345
792450
792497
792834
793043
793322
793472
793639
793689
793926
793928
794303
794474
794593
794657
794675
794741
794761
794810
794852
795118
795207
795212
795215
795372
795821
795823
796037
796058
796173
796265
796377
796605
796796
797105
797257
797371
797416
797730
797819
797955
798009
798132
798255
798306
798798
798807
798818
798853
798940
799078
799380
799465
799483
799486
799623
799693
799747
800428
800475
800558
800700
800761
800775
800798
800859
800952
801064
801333
801419
801643
801807
801859
801874
801907
801924
801938
802220
802223
802618
802652
802679
802735
802847
803132
803640
803761
803779
803780
803902
804406
804847
804873
805281
805672
805740
805919
806151
806177
806478
806629
806773
806779
806789
806826
806879
806905
807162
807210
807338
807345
807454
807608
807680
807746
808133
808153
808879
809261
809421
809467
809551
809684
809793
809914
810188
810316
810381
810415
810611
810663
810693
810740
810812
810840
810961
811089
811132
811153
811189
811565
811609
811696
811697
811891
811957
811961
811981
812089
812203
812392
812425
812540
812557
812576
812639
812778
813100
813344
813400
813498
813806
814449
814479
814503
814577
814918
815091
815187
815515
815543
815731
815747
816048
816072
816182
816336
816501
816699
816760
816787
816819
816832
816838
816992
817010
817050
817161
817436
817513
817658
817672
817693
817996
818194
818339
818538
818654
818696
819339
819385
819753
819932
819964
820054
820139
820163
820175
820348
820418
820513
820720
820746
820819
820980
820997
821090
821308
821376
821412
821426
821428
821437
821594
821638
821784
821872
821967
821969
822027
822041
822129
822163
822219
822254
822319
822620
822704
822727
822742
822752
823106
823150
823161
823199
823259
823279
823348
823368
823397
823512
823783
823806
823830
823887
823906
823929
824078
824097
824459
824477
825108
825274
825294
825313
825486
825563
825678
825904
825918
826312
826469
826567
826800
827289
827328
827602
827632
827780
828176
828389
828533
828586
828607
828686
828694
828701
828962
829142
829203
829233
829411
829640
829816
829930
830271
830348
830514
830543
830616
830975
831284
831509
831647
831679
831752
831821
831867
832006
832327
832409
832450
832548
832670
832719
832873
832890
833037
833046
833052
833052
833125
833226
833570
833592
833625
833681
833896
833899
834058
834200
834372
834749
835061
835074
835113
835120
835248
835266
835309
835339
835663
836165
836236
836375
836652
836887
837211
837387
837687
837719
837883
837934
838083
838112
838519
838830
838851
838893
839022
839061
839193
839224
839241
839259
839433
839637
840115
840398
840430
840449
840845
840953
841029
841128
841302
841446
841492
841517
841842
841856
842134
842225
842592
842983
843015
843098
843110
843143
843157
843207
843349
843531
843574
843989
844098
844187
844298
844473
844534
845096
845213
845306
845426
845451
845497
845580
845587
845629
845889
846375
846450
846525
846545
846593
846606
846847
847025
847052
847100
847231
847355
847378
847463
847503
847746
847911
847979
848054
848283
848494
849165
849209
849221
849279
849546
849593
849813
849816
850040
850087
850147
850201
850248
850527
850927
850955
851056
851072
851143
851308
851365
851408
851425
851554
851565
851645
851737
852459
852501
852663
852709
852740
852743
852906
852989
853023
853052
853187
853199
853241
853399
853526
853572
853591
853714
853748
853797
853801
853854
853990
854054
854266
854278
854411
854428
854635
854697
854713
854749
854893
855099
855300
855342
855476
855497
855538
855539
855597
855707
855708
856065
856075
856217
856234
856252
856364
856506
856817
856953
857234
857562
857811
857931
857951
858035
858367
858449
858484
858590
858710
858714
858888
858959
859061
859094
859418
859467
859592
859653
859729
860134
860169
860208
860214
860469
860508
860697
860823
860838
860887
861448
861476
861676
861787
861982
861991
862047
862104
862355
862396
862426
862800
862927
863233
863369
863467
863599
863882
863959
864069
864138
864209
864218
864285
864422
864460
864511
864922
865243
865557
865650
866021
866058
866066
866118
866381
866392
866501
866638
866662
866755
866821
866874
866881
867052
867308
867411
867639
867913
868063
868402
868485
868584
868843
869089
869413
869453
869489
869526
869824
870036
870037
870054
870085
870093
870302
870394
870444
870630
870773
871055
871113
871172
871190
871209
871691
871802
871928
871989
872165
872214
872235
872266
872757
872934
873060
873082
873696
873960
874115
874262
874440
874507
874692
874897
874947
874953
874953
875058
875378
875388
875630
875687
875734
875760
875767
875965
876181
876192
876341
876792
876817
877058
877072
877156
877173
877178
877291
877474
877549
877727
877738
877753
877929
878203
878323
878528
878531
878607
878936
878956
879128
879197
879281
879353
879365
879529
879532
879988
880221
880228
880277
880400
880650
880721
880727
880730
880901
881299
881328
881339
881404
881514
881703
881706
881981
882274
882523
882582
882684
882786
882844
882930
882999
883128
883191
883358
883421
883510
883651
883766
883835
883978
884031
884322
884419
884451
884459
884498
884518
884921
884943
885028
885091
885199
885347
885460
885511
885598
885680
885725
885792
885824
885857
885905
885970
885991
886091
886693
886696
886784
887075
887195
887435
887537
888055
888479
888495
888798
888907
888918
888947
888998
889015
889140
889194
889451
889471
889488
889538
890124
890208
890224
890310
890355
890362
890365
890417
890767
890795
890968
891089
891714
891921
891947
892317
892379
892623
892640
892656
892868
893006
893118
893132
893195
893713
893752
893786
893858
893948
894253
894379
894464
894846
894854
894909
894938
895213
895309
895533
895728
895884
896125
896358
896691
896920
896948
897019
897040
897191
897268
897346
897387
897417
897468
897477
897565
897579
897791
897927
898138
898165
898368
898475
898847
899000
899001
899181
899311
899361
899364
899450
899664
899913
900058
900133
900210
900318
900447
900644
900738
900823
900844
901141
901258
901531
901593
901660
901736
901787
902246
902410
902501
902657
902683
903114
903141
903179
903188
903382
904000
904019
904128
904173
904591
904896
904962
905059
905148
905175
905558
905997
906001
906045
906067
906069
906179
906281
906649
906789
906843
906919
907331
907337
907632
907692
908022
908118
908181
908523
908535
908567
908647
908711
908806
909202
909386
909617
909728
909760
909763
909836
909957
909971
910148
910214
910218
910358
910434
910606
910704
910893
910912
910913
910966
911055
911056
911131
911132
911516
911714
911800
911830
911916
912088
912295
912375
912407
912465
912555
912703
912714
912856
912896
913131
913263
913298
913483
913504
913595
913655
914066
914182
914269
914348
914348
914409
914496
914596
914655
914661
914778
914896
915015
915101
915116
915243
915675
915977
916072
916322
916352
916639
916652
916700
916886
916888
916906
916914
916926
917075
917092
917254
917334
917589
917711
917733
917923
917976
918241
918357
918449
918552
918650
918722
918839
918979
919064
919106
919111
919136
919203
919300
919436
919464
919836
920037
920054
920108
920340
920394
920413
920509
920652
920669
920687
920693
920919
920933
921118
921195
921209
921230
921569
921653
921680
921961
922100
922197
922211
922282
922499
922661
922673
922676
922688
922725
922849
922909
923069
923247
923452
923711
923802
923907
923910
924173
924212
924370
924467
924606
924694
924796
924815
925237
925307
925345
925487
925602
925603
925643
925804
925827
925892
926010
926226
926324
926348
926436
926777
926832
927270
927281
927395
927715
927732
927756
927899
927911
928073
928083
928116
928144
928229
928532
928872
929072
929080
929358
929396
929457
929593
929602
930233
930293
930989
931323
931406
931429
931482
931644
931705
931948
932074
932107
932198
932459
932545
932616
932796
932864
932902
932937
933015
933274
933322
933401
933442
933829
934057
934105
934237
934268
934286
934346
934446
934682
934813
934933
935047
935189
935713
935725
935760
935789
935838
936345
936357
936573
936621
936932
937008
937276
937531
937611
937946
938286
938437
938706
938784
939094
939183
939213
939304
939546
939583
939593
939675
939721
939804
940234
940243
940260
940274
940494
940624
940637
940768
940846
941028
941250
941309
941356
941407
941438
941786
942021
942253
942446
942677
942688
942939
943058
943062
943243
943352
943631
943773
943842
943901
944078
944134
944298
944312
944361
944544
944638
944679
944852
944887
945063
945223
945350
945691
945752
945786
945938
946018
946112
946173
946295
946554
946595
946670
946815
946888
947243
947289
947417
947700
947701
947749
948022
948402
948514
948891
948987
949041
949082
949221
949318
949437
950115
950281
950410
950522
950534
950542
950595
950625
950708
950750
950791
950876
950939
951214
951257
951309
951353
951547
951564
951902
952001
952136
952158
952468
952557
952985
953242
953561
953851
954115
954303
954355
954389
954446
954480
954672
954676
954692
954697
954699
954952
955123
955206
955307
955436
955613
955764
955785
955952
956241
956548
956794
956975
957186
957346
957917
958086
958300
958467
958502
958711
958849
959128
959137
959176
959246
959340
959369
959516
959632
959722
959795
960080
960148
960315
960931
961176
961189
961275
961504
961788
961981
962055
962081
962193
962271
962415
962604
962728
962849
962982
963087
963183
963324
963927
964081
964149
964314
964453
964455
964626
964669
964713
964854
964870
964889
964930
964995
965000
965160
965420
965437
965591
965827
965830
965948
966468
966560
966874
967224
967340
967473
967506
967538
967553
967623
968015
968122
968349
968613
968724
968741
968771
968779
969067
969265
969279
969325
969350
969392
969512
969770
969857
969946
969996
970025
970487
970504
970591
970795
970841
971081
971259
971270
971338
971616
971837
972086
972120
972317
972349
972389
972394
972475
972773
972774
973042
973137
973345
973462
973613
973805
973910
973946
974100
974117
974227
974273
974423
974740
974797
974856
975116
975180
975193
975419
975512
975564
975565
975703
975754
975820
976217
976339
976477
976752
977283
977321
977359
977640
977786
977900
977939
978120
978214
978322
978326
978438
978488
978517
978582
978654
978910
978992
979119
979240
979332
979595
979663
979676
979800
979803
979813
980037
980145
980288
980360
980422
980446
980613
981018
981030
981169
981293
981339
981416
981544
981751
981840
981883
982193
982451
982458
982497
982539
982550
982712
982726
982827
982840
982841
982854
982862
982972
983003
983095
983195
983362
983376
983448
983571
983613
983615
983617
983638
983639
983936
984172
984223
984298
984338
984398
984550
984753
985080
985251
985252
985481
985486
985551
985959
985975
985985
985994
986023
986041
986156
986257
986302
986353
986483
986663
986759
986809
986955
986965
987471
987648
987715
987724
987812
987875
988019
988038
988064
988142
988210
988281
988333
988343
989077
989084
989093
989216
989265
989358
989379
989619
990196
990262
990282
990599
990939
990949
990958
991057
991374
991800
991803
992122
992347
992441
992552
992602
992716
992829
992900
993330
993352
993410
993662
993899
994039
994162
994295
994344
994423
994447
994559
994580
994626
994688
994910
995202
995349
995360
995551
995711
995730
995887
996107
996316
996486
996515
996531
996588
996664
996717
996739
996796
996844
997127
997241
997310
997608
997610
997942
998023
998108
998216
998275
998365
998402
998418
998487
998531
998855
998892
998918
998968
999131
999720
999762
999770
999833
999900
999917
999928
